<?xml version="1.0" encoding="UTF-8"?>
<svg width="45.647mm" height="64.538mm" version="1.1" viewBox="0 0 45.647 64.538" xmlns="http://www.w3.org/2000/svg" xmlns:cc="http://creativecommons.org/ns#" xmlns:dc="http://purl.org/dc/elements/1.1/" xmlns:rdf="http://www.w3.org/1999/02/22-rdf-syntax-ns#" xmlns:xlink="http://www.w3.org/1999/xlink">
 <defs>
  <linearGradient id="b">
   <stop stop-color="#f3f3f3" offset="0"/>
   <stop stop-color="#8f8f8f" offset="1"/>
  </linearGradient>
  <linearGradient id="p" x1="-207.14" x2="-74.877" y1="237.69" y2="675.33" gradientTransform="matrix(1.0542,0,0,1.046,336.04,286.71)" gradientUnits="userSpaceOnUse">
   <stop offset="0"/>
   <stop stop-color="#555753" offset="1"/>
  </linearGradient>
  <linearGradient id="e">
   <stop stop-color="#fff" offset="0"/>
   <stop stop-color="#fff" stop-opacity="0" offset="1"/>
  </linearGradient>
  <filter id="h-0">
   <feGaussianBlur stdDeviation="3.759"/>
  </filter>
  <linearGradient id="i-0" x1="207.14" x2="216.62" y1="611.01" y2="96.59" gradientUnits="userSpaceOnUse" xlink:href="#b"/>
  <radialGradient id="n-2" cx="-77.534" cy="-893.42" r="58.669" gradientTransform="matrix(1 0 0 .91456 6.1002 -82.566)" gradientUnits="userSpaceOnUse" xlink:href="#e"/>
  <radialGradient id="m-1" cx="293.31" cy="582.64" r="63.148" gradientTransform="matrix(1,0,0,1.5844,6.1002,-373.3)" gradientUnits="userSpaceOnUse" xlink:href="#e"/>
  <radialGradient id="an-3" cx="181.53" cy="25.465" r="25.374" gradientTransform="matrix(.82727 .56181 -2.1484 3.1636 85.345 -148.09)" gradientUnits="userSpaceOnUse" xlink:href="#e"/>
  <linearGradient id="d-88" x2="0" y1="243.71" y2="223.26" gradientUnits="userSpaceOnUse" xlink:href="#b"/>
  <radialGradient id="a-65" cx="434.21" cy="245.98" r="26.737" gradientUnits="userSpaceOnUse" xlink:href="#e"/>
  <linearGradient id="ey-8" x2="0" y1="-26.468" y2="-31.877" gradientUnits="userSpaceOnUse" xlink:href="#b"/>
 </defs>
 <metadata>
  <rdf:RDF>
   <cc:Work rdf:about="">
    <dc:format>image/svg+xml</dc:format>
    <dc:type rdf:resource="http://purl.org/dc/dcmitype/StillImage"/>
    <dc:title/>
   </cc:Work>
  </rdf:RDF>
 </metadata>
 <g transform="translate(-44.879 -108.39)">
  <g transform="matrix(.54223 0 0 .54223 -40.369 134.37)">
   <g transform="matrix(.22624 0 0 .22624 157.21 -151.23)">
    <g fill-rule="evenodd">
     <path d="m46.66 500.45h278.82a15.629 15.629 0 0 1 15.629 15.629v407.15a15.629 15.629 0 0 1-15.629 15.629h-278.82a15.629 15.629 0 0 1-15.629-15.629v-407.15a15.629 15.629 0 0 1 15.629-15.629" filter="url(#h-0)"/>
     <path d="m50.164 498.75h274.24a17.919 17.919 0 0 1 17.919 17.919v402.57a17.919 17.919 0 0 1-17.919 17.919h-274.24a17.919 17.919 0 0 1-17.919-17.919v-402.57a17.919 17.919 0 0 1 17.919-17.919" fill="url(#i-0)" stroke="#000"/>
     <path d="m53.24 514.06h268.08a5.719 5.719 0 0 1 5.719 5.719v396.36a5.719 5.719 0 0 1-5.719 5.719h-268.08a5.719 5.719 0 0 1-5.719-5.719v-396.36a5.719 5.719 0 0 1 5.719-5.719" fill="url(#p)"/>
    </g>
    <path transform="scale(-1)" d="m-165.94-922.04h117.34v107.31h-117.34z" fill="url(#n-2)" opacity=".31"/>
    <path d="m204.24 513.87h117.15a4.5752 4.5752 0 0 1 4.5752 4.5752v190.96a4.5752 4.5752 0 0 1-4.5752 4.5752h-117.15a4.5752 4.5752 0 0 1-4.5752-4.5752v-190.96a4.5752 4.5752 0 0 1 4.5752-4.5752" fill="url(#m-1)" opacity=".317"/>
    <path d="m113.68 904.06h197.66v-325.34m-51.156-46.875h-196.94v323.47" fill="none" stroke="#fff"/>
   </g>
   <path d="m180.71 50.068c0.5301-0.9026-1.57-4.0945-1.84-5.3027-0.0346-0.0975-0.0374-0.2033-0.0566-0.304-0.0354-0.1728-0.0294-0.3489-0.0424-0.5232-5e-3 -0.3067 0.0774-0.6056 0.1273-0.905 0.171-0.0138 0.304-0.1577 0.304-0.3323 0-0.1148-0.0529-0.2159-0.1414-0.2757 0.0687-0.2282 0.142-0.4581 0.2121-0.6858 0.142-0.5069 0.3786-0.9691 0.601-1.4423 0.3196-0.6107 0.7064-1.1811 1.0888-1.7534 0.1192-0.1821 0.2463-0.3625 0.3747-0.5373 0.035 0.0063 0.0692 0.0071 0.1061 0.0071 0.3339 0 0.608-0.2671 0.608-0.6009 0-0.087-0.0234-0.1727-0.0566-0.2475l0.4525-0.5373c0.6623-0.732 1.4018-1.3847 2.1352-2.0432 0.8075-0.743 1.6665-1.4257 2.5311-2.0998 1.0291-0.7999 2.1195-1.5081 3.2098-2.22 1.0321-0.6683 2.0785-1.3106 3.132-1.9443 0.0462 0.0113 0.0989 0.0141 0.1485 0.0141 0.3339 0 0.6009-0.2671 0.6009-0.601s-0.2671-0.608-0.6009-0.608-0.608 0.2741-0.608 0.608c0 0.2764 0.185 0.5076 0.4383 0.5797l-0.2969 0.1697c-1.2827 0.7651-2.5569 1.5426-3.8108 2.3544-1.0933 0.7136-2.1918 1.4254-3.2239 2.2271-0.8659 0.6747-1.7225 1.3629-2.5311 2.1069-0.6223 0.5584-1.2434 1.116-1.8241 1.718-0.0894-0.0522-0.1931-0.0848-0.304-0.0848-0.3339 0-0.608 0.2741-0.608 0.608 0 0.1348 0.0456 0.26 0.1202 0.3606-0.3615 0.4357-0.7065 0.8824-1.0181 1.3575-0.3838 0.5735-0.7666 1.149-1.0888 1.7605l-0.1414 0.304c0.0277-0.6108 0.1044-1.2181 0.1838-1.8241 0.0885-0.8592 0.2994-1.693 0.5232-2.524 0.2099-0.7591 0.505-1.484 0.8272-2.1988 0.2121-0.3129 0.5138-0.8582 0.8696-1.6261 0.0554-0.1195 0.0958-0.2511 0.1414-0.3747l0.0353-0.0919c0.4317-0.7849 0.8831-1.5535 1.3362-2.3261 0.0269-0.0479 0.0576-0.0938 0.0848-0.1414l0.5161-0.6999c0.4935-0.6371 1.0184-1.2536 1.5413-1.8665 0.6734-0.783 1.3988-1.5181 2.121-2.2554 0.8102-0.8378 1.6751-1.6216 2.5382-2.4038 0.9371-0.8265 1.8691-1.6549 2.7998-2.4887 0.9857-0.8883 1.9882-1.7598 2.9836-2.6372 1.1234-0.9743 2.2099-1.9875 3.2876-3.0119 0.5715-0.544 1.1359-1.0925 1.6968-1.6473-0.1132 0.1435 0.5421-0.3578 1.6827-1.3292 1.1064-0.9423 2.229-1.8638 3.3866-2.7432 0.8239-0.6218 1.8628-1.3975 2.2695-1.5554l0.502-0.2192c-0.0179 0.0571-0.0353 0.1138-0.0353 0.1768 0 0.3339 0.2741 0.608 0.608 0.608s0.601-0.2741 0.601-0.608c0-0.1499-0.0581-0.2832-0.1485-0.3889 2.2358-0.1628 2.6973-0.4898 0.2757-0.3323-0.202 0.0131-0.3882 0.0622-0.5727 0.1343-0.0501-0.0135-0.1012-0.0141-0.1555-0.0141-0.2361 0-0.4377 0.1348-0.5373 0.3323-1.2196 0.6036-2.3261 1.3886-3.4078 2.2059-1.1542 0.8776-2.2692 1.8029-3.3724 2.7432-0.4561 0.3887-0.7602 0.6646-0.9333 0.8272 0.5765-0.5721 1.1492-1.1453 1.718-1.7251 1.2498-1.2572 2.4301-2.5805 3.5775-3.931 0.7112-0.8505 1.3957-1.7252 2.0645-2.6089 0.111 0.1332 0.2798 0.2192 0.4666 0.2192 0.3339 0 0.6009-0.2741 0.6009-0.608 0-0.2469-0.1484-0.4575-0.3606-0.5515 0.2995-0.4059 0.5961-0.8137 0.8908-1.2231 1.2694-1.7417 2.4024-3.5735 3.4573-5.4511 1.0775-2.0081 2.1036-4.0577 2.7856-6.2358 0.5158-1.902 0.8143-3.8539 1.1241-5.7975 0.3719-2.333-0.2095-1.9939-0.5797 0.3394-0.3084 1.9435-0.6067 3.889-1.1241 5.7904-0.6846 2.1782-1.7138 4.2274-2.7927 6.2358-0.0844 0.1501-0.1762 0.2959-0.2616 0.4454-0.031-0.1516-0.1645-0.2687-0.3252-0.2687-0.1837 0-0.3323 0.1557-0.3323 0.3394s0.1487 0.3323 0.3323 0.3323c0.0399 0 0.0776-0.0083 0.1131-0.0212-0.9204 1.589-1.9007 3.1456-2.9836 4.6309l-0.608 0.8413c-0.3048 0.0311-0.5444 0.2809-0.5444 0.5939 0 0.0417 6e-3 0.0808 0.0141 0.1202-0.8141 1.0936-1.6486 2.1711-2.524 3.2169-1.1486 1.3508-2.3268 2.6731-3.5775 3.931-1.1758 1.1983-2.368 2.3851-3.5845 3.5421-1.0793 1.0254-2.1697 2.0365-3.2947 3.0119-0.9959 0.8775-1.9975 1.7486-2.9836 2.6371l-2.8068 2.4887c-0.8035 0.7281-1.6077 1.4611-2.3685 2.2342-0.0224-0.0883-0.0784-0.1608-0.1555-0.205 0.2975-0.3063 0.6009-0.6051 0.905-0.905 1.0038-0.9426 2.0353-1.8582 3.0401-2.7998 1.1836-1.1114 2.3373-2.2531 3.4785-3.4078 1.3075-1.3088 2.5018-2.7152 3.6128-4.1926 1.2442-1.7069 2.283-3.5475 3.2876-5.4015 1.0898-1.9472 1.9458-4.0025 2.6513-6.1156 0.6912-2.2752 1.073-4.63 1.3645-6.9853 0.157-2.0014 0.1352-4.0112 0.0778-6.0167 0.1258-0.1109 0.205-0.2717 0.205-0.4525 0-0.196-0.0958-0.3702-0.2404-0.4808-8e-3 -0.2473-0.0135-0.4952-0.0212-0.7423-0.0153-0.4176-0.0272-0.8338-0.0424-1.2514-0.0856-2.3428-0.6601-2.0104-0.5727 0.3323 0.0156 0.4174 0.0268 0.834 0.0424 1.2514 3e-3 0.1084 0.0106 0.2168 0.0141 0.3252-0.228 0.0867-0.3888 0.3073-0.3888 0.5656 0 0.2709 0.1785 0.4887 0.4242 0.5656 0.0311 1.0371 0.0539 2.0736 0.0495 3.1108-0.0724-0.0306-0.1498-0.0495-0.2333-0.0495-0.3339 0-0.608 0.267-0.608 0.6009s0.2741 0.608 0.608 0.608c0.0756 0 0.1454-0.0171 0.2121-0.0424-0.0178 0.6691-0.0454 1.3399-0.099 2.0079-0.1874 1.511-0.4214 3.0221-0.7423 4.5107 0.0167-0.7097 0.0258-1.4252 7e-3 -2.1352-0.0528-1.6859-0.1556-3.3676-0.3747-5.041-0.1814-1.1423-0.3524-2.2879-0.6787-3.4007-0.1647-0.5617-0.3169-1.1292-0.5656-1.6615-0.0876-0.1451-0.1378-0.328-0.2687-0.4454-1.9057-1.7096-2.5456-1.322-0.6222 0.3676 0.1321 0.1161 0.1795 0.2871 0.2687 0.4313 0.2542 0.5288 0.4044 1.1018 0.5727 1.6615 0.3309 1.1099 0.5078 2.2534 0.6929 3.3936 0.2246 1.6712 0.3345 3.3566 0.3889 5.041 0.0259 0.9384 6e-3 1.8759-0.0212 2.8139-0.0157 0.5495 3e-3 0.9459 0.0424 1.2161l-0.0707 0.2333c-0.3855 1.1527-0.82 2.2828-1.308 3.3936-0.1042-0.1826-0.298-0.304-0.5232-0.304-0.3339 0-0.6009 0.267-0.6009 0.6009s0.2671 0.608 0.6009 0.608l0.1202-0.0141c-0.2942 0.6202-0.6039 1.2304-0.9403 1.8312-1.0059 1.8552-2.0483 3.7013-3.2947 5.4086-1.1127 1.4784-2.3109 2.8826-3.6199 4.1926-1.1429 1.1558-2.293 2.3025-3.4785 3.4148-1.0063 0.9421-2.0422 1.8562-3.0472 2.7998l-0.5161 0.5161c-0.1432 0.0228-0.2551 0.1389-0.2757 0.2828-0.6252 0.6378-1.2347 1.2889-1.7605 2.015-0.6752 0.9355-1.3324 1.8841-1.9089 2.8846-0.2182 0.2991-0.4254 0.6003-0.6151 0.9191-0.1959 0.332-0.413 0.6553-0.5797 1.004-0.1061 0.2347-0.2403 0.4598-0.3181 0.707-3e-3 0.0069-5e-3 0.0143-7e-3 0.0212-0.1659 0.3042-0.3319 0.6096-0.4878 0.9191-0.2 0.4197-0.392 0.8405-0.5797 1.2655 0.0152-0.0705 0.0274-0.1416 0.0424-0.2121 0.1235-0.5908 0.3204-1.1653 0.502-1.7392 0.2378-0.6854 0.5222-1.3479 0.806-2.015 0.3503-0.8131 0.7126-1.6211 1.0676-2.4321 0.485-1.0944 1.0315-2.1622 1.5696-3.231 0.6861-1.3084 1.2928-2.6512 1.8736-4.0087 0.695-1.6537 1.3768-3.3135 2.0645-4.9703 0.7238-1.7037 1.4125-3.4217 2.0645-5.1541 0.1447-0.0361 0.2545-0.1694 0.2545-0.3252 0-0.0743-0.0225-0.1426-0.0636-0.198 0.6572-1.8165 1.2393-3.6602 1.8029-5.5076 0.6506-2.1472 1.2121-4.3178 1.6473-6.5186 0.4428-2.5552 0.5421-5.1538 0.5161-7.7417-0.0801-2.6352-0.3866-5.2544-0.707-7.869-0.1979-1.5734-0.4349-3.1419-0.6787-4.7087-0.109-0.7-0.2367-1.1543-0.3535-1.3928 0.0608 0.0206 0.1232 0.0353 0.1909 0.0353 0.3339 0 0.608-0.2741 0.608-0.608s-0.2741-0.6009-0.608-0.6009-0.601 0.267-0.601 0.6009c0 0.1601 0.061 0.3089 0.1626 0.4172-0.1184 0.1651-0.1472 0.8094 0.0212 1.8806 0.109 0.6934 0.2151 1.3913 0.3182 2.0857-0.0595-0.056-0.1452-0.0848-0.2333-0.0848-0.1836 0-0.3323 0.1486-0.3323 0.3323s0.1487 0.3323 0.3323 0.3323c0.1269 0 0.2409-0.0722 0.2969-0.1767 0.1078 0.7391 0.2098 1.479 0.304 2.22l0.0707 0.5656c-0.0831-0.043-0.1758-0.0707-0.2757-0.0707-0.3339 0-0.608 0.2741-0.608 0.608s0.2741 0.6009 0.608 0.6009c0.1506 0 0.2829-0.0573 0.3888-0.1485 0.2487 2.0971 0.467 4.2018 0.5303 6.3136 0.0249 2.5895-0.0812 5.1859-0.5303 7.7418-0.4378 2.2015-0.9944 4.3777-1.6473 6.5257-0.5203 1.7039-1.0644 3.3976-1.6615 5.0763-0.1006 0.0572-0.1626 0.1659-0.1626 0.2899 0 0.0411 8e-3 0.0839 0.0212 0.1202-0.0421 0.1161-0.0846 0.2305-0.1273 0.3464-0.6741 1.7969-1.3842 3.5858-2.1352 5.3521-0.6892 1.6582-1.3739 3.3157-2.0715 4.9703-0.5829 1.3589-1.1928 2.706-1.8806 4.0158-0.54 1.0702-1.089 2.1355-1.5766 3.231-0.3572 0.8119-0.716 1.6248-1.0676 2.4392-0.2843 0.6675-0.5743 1.3293-0.8131 2.015-0.1826 0.5744-0.3781 1.1478-0.502 1.7392-0.1061 0.4953-0.2173 0.9926-0.304 1.4918-0.044 0.2173-0.0823 0.4348-0.1343 0.6504-0.2564 1.0628-0.2815 1.6024-0.1838 1.6827-0.0288 0.1797-0.0519 0.3624-0.0707 0.5444-0.0936 0.7093-0.1935 1.4184-0.205 2.1352-2e-3 0.3291 6e-4 0.6607 0 0.9898-0.0768 0.2451-0.1475 0.4917-0.205 0.7424-0.0161 0.1-0.0367 0.1972-0.0566 0.2969h-2.9694c1.9924 0.5764 3.5549 0.4088 5.8629 6.1794zm0.585-4.6735c0.1836 0 0.3323-0.1486 0.3323-0.3323s-0.1487-0.3323-0.3323-0.3323-0.3323 0.1486-0.3323 0.3323 0.1487 0.3323 0.3323 0.3323zm-4.6309-1.6897c0.3339 0 0.608-0.2741 0.608-0.608s-0.2741-0.608-0.608-0.608-0.601 0.2741-0.601 0.608 0.2671 0.608 0.601 0.608zm3.2664-0.7282c0.3339 0 0.608-0.2741 0.608-0.608s-0.2741-0.6009-0.608-0.6009-0.601 0.267-0.601 0.6009 0.2671 0.608 0.601 0.608zm-4.2633-1.6968c0.1836 0 0.3323-0.1486 0.3323-0.3323s-0.1487-0.3323-0.3323-0.3323-0.3323 0.1486-0.3323 0.3323 0.1487 0.3323 0.3323 0.3323zm1.513-0.5444c0.1837 0 0.3323-0.1487 0.3323-0.3323s-0.1486-0.3323-0.3323-0.3323-0.3323 0.1486-0.3323 0.3323 0.1487 0.3323 0.3323 0.3323zm5.7126-0.7211c0.3339 0 0.608-0.2741 0.608-0.608s-0.2741-0.601-0.608-0.601-0.601 0.2671-0.601 0.601 0.2671 0.608 0.601 0.608zm1.4211-1.0322c0.1837 0 0.3323-0.1487 0.3323-0.3323s-0.1487-0.3323-0.3323-0.3323-0.3323 0.1487-0.3323 0.3323 0.1487 0.3323 0.3323 0.3323zm-8.3144-0.6646c0.3339 0 0.608-0.2671 0.608-0.601s-0.2741-0.608-0.608-0.608-0.608 0.2741-0.608 0.608 0.2741 0.6009 0.608 0.601zm1.3928-1.7534c0.3339 0 0.601-0.2741 0.601-0.608s-0.2671-0.601-0.601-0.601-0.608 0.2671-0.608 0.601 0.2741 0.608 0.608 0.608zm7.8336-0.2404c0.1837 0 0.3323-0.1487 0.3323-0.3323s-0.1487-0.3323-0.3323-0.3323-0.3323 0.1486-0.3323 0.3323 0.1487 0.3323 0.3323 0.3323zm4.3835-0.5444c0.3339 0 0.608-0.2741 0.608-0.608s-0.2741-0.601-0.608-0.6009-0.608 0.267-0.608 0.6009 0.2741 0.608 0.608 0.608zm-6.4691-0.7282c0.3339 0 0.6009-0.2671 0.601-0.601s-0.2671-0.608-0.601-0.608-0.608 0.2741-0.608 0.608 0.2741 0.6009 0.608 0.601zm2.3685-0.1485c0.0274 6e-3 0.7094-0.4613 1.8241-1.2797 0.4756-0.3492 0.9377-0.717 1.4423-1.0252 0.2089-0.1218 1.536-0.9105 2.2059-1.1736l0.4666-0.205c-0.0882 0.1051-0.1414 0.234-0.1414 0.3818 0 0.3339 0.2671 0.608 0.6009 0.608s0.608-0.2741 0.608-0.608c0-0.3215-0.2559-0.5748-0.5727-0.5939 0.5288-0.2317 1.0583-0.4653 1.5978-0.6717 0.6041-0.2433 1.2086-0.4887 1.817-0.7211l0.7777-0.2899c2.3874-0.9107 3.0083-1.2748 0.6222-0.3606l-0.7848 0.2969c-0.6108 0.2342-1.2103 0.4765-1.817 0.7211-0.8676 0.3323-1.7193 0.7154-2.5664 1.0959-1.1885 0.532-2.3055 1.2011-3.4219 1.8665-0.5039 0.3077-0.9674 0.6764-1.4423 1.0252-0.8669 0.6367-1.2373 0.9286-1.2161 0.9333zm-8.4205-0.6363c0.3339 0 0.608-0.2741 0.608-0.608s-0.2741-0.6009-0.608-0.6009-0.608 0.267-0.608 0.6009 0.2741 0.608 0.608 0.608zm13.214-0.6646c0.1836 0 0.3323-0.1486 0.3323-0.3323s-0.1487-0.3323-0.3323-0.3323-0.3323 0.1486-0.3323 0.3323 0.1487 0.3323 0.3323 0.3323zm-10.973-0.8484c0.3339 0 0.601-0.2741 0.601-0.608s-0.2671-0.6009-0.601-0.6009-0.608 0.267-0.608 0.6009 0.2741 0.608 0.608 0.608zm3.2664-0.1838c0.3339 0 0.601-0.2671 0.601-0.6009s-0.2671-0.608-0.601-0.608-0.608 0.2741-0.608 0.608 0.2741 0.6009 0.608 0.6009zm-8.2013-0.4808c0.1837 0 0.3323-0.1486 0.3323-0.3323s-0.1486-0.3323-0.3323-0.3323-0.3323 0.1487-0.3323 0.3323 0.1486 0.3323 0.3323 0.3323zm21.111-1.1524c0.1837 0 0.3323-0.1487 0.3323-0.3323s-0.1486-0.3323-0.3323-0.3323-0.3323 0.1486-0.3323 0.3323 0.1487 0.3323 0.3323 0.3323zm-7.2256-0.0566c0.3339 0 0.601-0.2741 0.601-0.608s-0.2671-0.601-0.601-0.601-0.608 0.2671-0.608 0.601 0.2741 0.608 0.608 0.608zm10.676-0.5444c0.1837 0 0.3323-0.1486 0.3323-0.3323s-0.1487-0.3323-0.3323-0.3323h-0.0283c0.1095-0.1095 0.1768-0.2573 0.1767-0.4242 0-0.3339-0.2671-0.608-0.6009-0.608s-0.608 0.2741-0.608 0.608 0.2741 0.601 0.608 0.601c0.0599 0 0.1151-5e-3 0.1697-0.0212-0.0306 0.0503-0.0495 0.1136-0.0495 0.1768 0 0.1836 0.1487 0.3323 0.3323 0.3323zm2.0857-1.3928c0.3339 0 0.608-0.2741 0.608-0.608s-0.2741-0.601-0.608-0.601-0.608 0.2671-0.608 0.601 0.2741 0.608 0.608 0.608zm-20.623 0c0.3339 0 0.6009-0.2741 0.6009-0.608s-0.2671-0.601-0.6009-0.601-0.608 0.2671-0.608 0.601 0.2741 0.608 0.608 0.608zm4.7723-0.0636c0.3339 0 0.608-0.2671 0.608-0.6009s-0.2741-0.608-0.608-0.608-0.6009 0.2741-0.6009 0.608 0.2671 0.6009 0.6009 0.6009zm17.392-0.0566c0.1836 0 0.3323-0.1486 0.3323-0.3323s-0.1486-0.3323-0.3323-0.3323-0.3323 0.1487-0.3323 0.3323 0.1487 0.3323 0.3323 0.3323zm-13.002-0.4242c0.1836 0 0.3323-0.1486 0.3323-0.3323s-0.1487-0.3323-0.3323-0.3323-0.3323 0.1486-0.3323 0.3323 0.1487 0.3323 0.3323 0.3323zm-5.5359-0.3959c0.2001-0.2866 0.3963-0.5719 0.601-0.8555 0.3692-0.51 0.776-0.9894 1.2019-1.4494 0.0447 0.0735 0.1196 0.1268 0.205 0.1485-0.6498 0.6618-1.2961 1.3262-1.9019 2.0291-0.036 0.0422-0.07 0.085-0.1061 0.1273zm11.503-0.912c0.5802-0.3296 1.251-0.7076 1.9584-1.1029 0.4977-0.2707 0.9975-0.5435 1.4918-0.8201 0.0546 0.0162 0.1098 0.0212 0.1697 0.0212 0.2788 0 0.5098-0.1887 0.5797-0.4454 0.6942-0.3929 1.3879-0.7887 2.0786-1.1878l-2.0715 1.1666c0.0103-0.0441 0.0141-0.0871 0.0141-0.1343 0-0.3339-0.2671-0.608-0.601-0.608s-0.608 0.2741-0.608 0.608c0 0.2638 0.1744 0.49 0.4101 0.5727-0.1609 0.0885-0.3526 0.197-0.4737 0.2616-0.9862 0.5511-1.9681 1.1066-2.9482 1.6685zm7.763-0.0848c0.1836 0 0.3323-0.1487 0.3323-0.3323s-0.1487-0.3323-0.3323-0.3323-0.3323 0.1486-0.3323 0.3323 0.1486 0.3323 0.3323 0.3323zm-23.14-0.905c0.3339 0 0.608-0.2741 0.608-0.608 0-0.0654-0.0162-0.1249-0.0353-0.1838 0.0216 0.0044 0.0407 0.0071 0.0636 0.0071 0.1837 0 0.3323-0.1486 0.3323-0.3323s-0.1486-0.3394-0.3323-0.3394-0.3252 0.1479-0.3323 0.3252c-0.089-0.0515-0.1939-0.0778-0.304-0.0778-0.3339 0-0.601 0.2671-0.601 0.601s0.2671 0.608 0.601 0.608zm-1.9655-0.0636c0.1837 0 0.3323-0.1486 0.3323-0.3323s-0.1486-0.3323-0.3323-0.3323-0.3323 0.1486-0.3323 0.3323 0.1487 0.3323 0.3323 0.3323zm4.2067-2.2978c0.3339 0 0.601-0.2671 0.601-0.601s-0.2671-0.608-0.601-0.608-0.608 0.2741-0.608 0.608 0.2741 0.601 0.608 0.601zm25.558-0.1202c0.1837 0 0.3323-0.1486 0.3323-0.3323s-0.1487-0.3323-0.3323-0.3323-0.3323 0.1486-0.3323 0.3323 0.1486 0.3323 0.3323 0.3323zm-5.9035-0.205 0.905-0.5232c1.5158-0.879 2.9519-1.8779 4.3481-2.9341 0.7049-0.5415 1.3877-1.1067 2.0503-1.6968 0.085 0.2313 0.3049 0.3959 0.5656 0.3959 0.3339 0 0.6009-0.2671 0.6009-0.6009 0-0.2428-0.1399-0.4552-0.3464-0.5515 0.4786-0.4492 0.9463-0.9034 1.4069-1.3716 0.3357-0.3409 0.6609-0.6947 0.9757-1.0535l0.0495-0.0424c0.9732-0.8796 1.9467-1.7487 2.8987-2.6513l0.0424-0.0495c0.042 0.293 0.2964 0.5161 0.6009 0.5161 0.3339 0 0.608-0.2671 0.608-0.601 0-0.3094-0.2375-0.5652-0.5373-0.6009 0.5488-0.5783 1.0716-1.1775 1.5059-1.8524 0.5709-0.8393 1.1359-1.6828 1.6827-2.5382 0.5421-0.8532 1.082-1.7083 1.6049-2.5735 0.3028-0.5032 0.6086-1.0018 0.8979-1.513-8e-3 0.0394-0.0141 0.0785-0.0141 0.1202 0 0.3339 0.2671 0.608 0.601 0.608s0.608-0.2741 0.608-0.608-0.2741-0.601-0.608-0.601c-0.1635 0-0.3082 0.0642-0.4171 0.1697l0.2404-0.4454c0.2219-0.4713 0.4622-0.9373 0.6222-1.4352 0.0714-0.1881 0.1201-0.379 0.2121-0.5585 0.1404-0.2738 0.2562-0.508 0.3464-0.707 0.2894-0.0452 0.5091-0.2919 0.5091-0.5939 0-0.2505-0.1506-0.4667-0.3676-0.5586 0.1431-0.0372 0.2475-0.1634 0.2475-0.3181 0-0.1837-0.1487-0.3323-0.3323-0.3323s-0.3323 0.1486-0.3323 0.3323c0 0.1148 0.06 0.2159 0.1485 0.2757-0.3177 0.0181-0.5727 0.2788-0.5727 0.601 0 0.2389 0.1382 0.4461 0.3394 0.5444-0.1793 0.2977-0.3781 0.6579-0.608 1.1171-0.0896 0.1788-0.1426 0.3715-0.2121 0.5585-0.1569 0.4966-0.3954 0.9583-0.6151 1.4282-0.3991 0.775-0.8524 1.5226-1.3009 2.2695-0.5222 0.8654-1.0628 1.7205-1.6049 2.5735-0.5467 0.8551-1.1121 1.699-1.6827 2.5382-0.3626 0.564-0.7879 1.0716-1.2373 1.5625-0.1362 0.0687-0.2438 0.1807-0.2969 0.3252l-0.6787 0.6929c-0.5446 0.5166-1.0979 1.0233-1.6544 1.5271 0.776-0.9522 1.4963-1.949 2.1917-2.9623 1.2509-1.7733 2.1682-3.7286 2.9199-5.755 0.0367-0.1028 0.0643-0.2079 0.099-0.3111 0.0564 0.2755 0.3017 0.4878 0.5939 0.4878 0.3339 0 0.601-0.2741 0.601-0.608s-0.2671-0.608-0.601-0.608c-0.1578 0-0.3023 0.0635-0.4101 0.1626 0.5822-1.9398 0.8405-3.948 0.9898-5.9672 0.2105-2.0797 0.025-4.1448-0.2404-6.2075-0.4958-3.854-1.4452-3.3103-0.9545 0.5444 0.2629 2.0648 0.4388 4.1335 0.2333 6.2146-0.1719 2.3261-0.4894 4.6427-1.2797 6.8509-0.7532 2.0273-1.6689 3.9877-2.92 5.7621-1.0503 1.5294-2.1611 3.0198-3.429 4.3764-0.7161 0.6347-1.4403 1.268-2.1635 1.8948-0.524 0.4629-1.0804 0.886-1.6261 1.3221-1.9076 1.5245-1.3067 1.178 0.601-0.3464 0.4947-0.3953 0.9975-0.7816 1.4776-1.1948-3e-3 0.0118-5e-3 0.0233-7e-3 0.0353-0.9584 0.9057-1.9574 1.7762-3.0048 2.5806-1.3715 1.0372-2.7844 2.0168-4.2703 2.8846zm-3.3512-0.1555c0.1837 0 0.3323-0.1487 0.3323-0.3323s-0.1486-0.3323-0.3323-0.3323-0.3323 0.1486-0.3323 0.3323 0.1487 0.3323 0.3323 0.3323zm6.052-0.2475c0.1516-0.031 0.2687-0.1716 0.2687-0.3323 0-0.1837-0.1487-0.3323-0.3323-0.3323s-0.3323 0.1486-0.3323 0.3323 0.1486 0.3323 0.3323 0.3323zm-13.405-0.1767c0.3339 0 0.608-0.2741 0.608-0.608s-0.2741-0.601-0.608-0.601-0.601 0.2671-0.601 0.601 0.2671 0.608 0.601 0.608zm1.8453-0.1838c0.1837 0 0.3323-0.1487 0.3323-0.3323s-0.1486-0.3323-0.3323-0.3323-0.3323 0.1486-0.3323 0.3323 0.1486 0.3323 0.3323 0.3323zm8.774-1.513c0.1837 0 0.3323-0.1487 0.3323-0.3323s-0.1486-0.3323-0.3323-0.3323-0.3323 0.1486-0.3323 0.3323 0.1487 0.3323 0.3323 0.3323zm2.9907-0.1768c0.3339 0 0.608-0.2741 0.608-0.608s-0.2741-0.608-0.608-0.608-0.601 0.2741-0.601 0.608 0.2671 0.608 0.601 0.608zm-21.352-0.2475c0.3339 0 0.608-0.2671 0.608-0.601s-0.2741-0.608-0.608-0.608-0.608 0.2741-0.608 0.608 0.2741 0.601 0.608 0.601zm28.641-0.601c0.1836 0 0.3323-0.1486 0.3323-0.3323s-0.1487-0.3323-0.3323-0.3323-0.3323 0.1486-0.3323 0.3323 0.1487 0.3323 0.3323 0.3323zm-21.323-0.1202c0.3339 0 0.608-0.2741 0.608-0.608s-0.2741-0.601-0.608-0.601-0.601 0.2671-0.6009 0.601 0.2671 0.608 0.6009 0.608zm-9.0426-1.0322c0.1837 0 0.3323-0.1487 0.3323-0.3323s-0.1487-0.3323-0.3323-0.3323-0.3323 0.1487-0.3323 0.3323 0.1487 0.3323 0.3323 0.3323zm24.406-0.0566c0.3339 0 0.608-0.2741 0.608-0.608s-0.2741-0.601-0.608-0.601-0.6009 0.2671-0.601 0.601 0.2671 0.608 0.601 0.608zm-21.712-0.608c0.3339 0 0.6009-0.2671 0.6009-0.601 0-0.2087-0.1007-0.3932-0.2616-0.502 0.0183-0.0412 0.0212-0.0864 0.0212-0.1343 0-0.1836-0.1487-0.3323-0.3323-0.3323s-0.3323 0.1487-0.3323 0.3323c0 0.0382 9e-3 0.0718 0.0212 0.1061-0.19 0.102-0.3252 0.2996-0.3252 0.5302 0 0.3339 0.2741 0.6009 0.608 0.601zm13.066-0.5444c0.3339 0 0.6009-0.2671 0.6009-0.6009s-0.2671-0.608-0.6009-0.608-0.608 0.2741-0.608 0.608 0.2741 0.6009 0.608 0.6009zm-11.142-0.2192c0.1402-0.0115 0.4156-0.6958 0.6504-1.9443 0.2383-1.2671 0.4664-2.5355 0.608-3.8179 0.1618-1.5808 0.2627-3.1682 0.2121-4.7582-0.0619-1.1876-0.1366-2.3749-0.3394-3.5492-0.1262-0.7918-0.2452-1.5839-0.4454-2.3614-0.0886-0.3016-0.1532-0.6092-0.2828-0.8979-1.0468-2.3328-1.7082-1.9542-0.6222 0.3606 0.1342 0.2861 0.1919 0.5906 0.2828 0.8908 0.207 0.7744 0.3309 1.5714 0.4596 2.3614 0.2055 1.1726 0.2819 2.3559 0.3464 3.5421 0.0538 1.5879-0.0396 3.1719-0.198 4.7511-0.1389 1.2817-0.3702 2.5517-0.608 3.8178-0.2069 1.1017-0.1874 1.615-0.0636 1.6049zm12.924-0.0212c0.1837 0 0.3323-0.1486 0.3323-0.3323s-0.1487-0.3323-0.3323-0.3323-0.3323 0.1487-0.3323 0.3323 0.1487 0.3323 0.3323 0.3323zm-9.9193-0.2404c0.1836 0 0.3323-0.1486 0.3323-0.3323s-0.1486-0.3323-0.3323-0.3323-0.3323 0.1486-0.3323 0.3323 0.1487 0.3323 0.3323 0.3323zm3.9663-1.0888c0.3339 0 0.601-0.2741 0.601-0.608s-0.2671-0.601-0.601-0.6009-0.608 0.267-0.608 0.6009 0.2741 0.608 0.608 0.608zm16.876-0.4878c0.3339 0 0.601-0.2671 0.601-0.601s-0.2671-0.608-0.601-0.608-0.608 0.2741-0.608 0.608 0.2741 0.601 0.608 0.601zm6.8014-1.3928c0.1836 0 0.3323-0.1486 0.3323-0.3323s-0.1487-0.3323-0.3323-0.3323-0.3323 0.1487-0.3323 0.3323 0.1487 0.3323 0.3323 0.3323zm-11.524-2.8422c0.3339 0 0.608-0.2671 0.608-0.6009s-0.2741-0.608-0.608-0.608-0.6009 0.2741-0.6009 0.608 0.2671 0.6009 0.6009 0.6009zm6.4409-0.9686c0.1837 0 0.3394-0.1487 0.3394-0.3323s-0.1557-0.3323-0.3394-0.3323-0.3323 0.1486-0.3323 0.3323 0.1486 0.3323 0.3323 0.3323zm-29.426-0.4172c0.3339 0 0.608-0.2741 0.608-0.608s-0.2741-0.608-0.608-0.608-0.6009 0.2741-0.6009 0.608 0.2671 0.608 0.6009 0.608zm15.307-0.2474c0.3339 0 0.601-0.2671 0.601-0.601s-0.2671-0.608-0.601-0.608-0.608 0.2741-0.608 0.608 0.2741 0.6009 0.608 0.601zm23.317-0.7211c0.1836 0 0.3323-0.1487 0.3323-0.3323s-0.1487-0.3323-0.3323-0.3323-0.3323 0.1486-0.3323 0.3323 0.1487 0.3323 0.3323 0.3323zm-0.7565-0.4879c0.3339 0 0.608-0.2671 0.608-0.6009s-0.2741-0.608-0.608-0.608-0.608 0.2741-0.608 0.608 0.2741 0.6009 0.608 0.6009zm-18.814-0.1767c0.3339 0 0.608-0.2741 0.608-0.608s-0.2741-0.608-0.608-0.608-0.601 0.2741-0.601 0.608 0.2671 0.608 0.601 0.608zm-9.983-0.6717c0.3339 0 0.608-0.2671 0.608-0.6009s-0.2741-0.608-0.608-0.608-0.6009 0.2741-0.6009 0.608 0.267 0.6009 0.6009 0.6009zm-6.3206-2.5947c0.1836 0 0.3323-0.1557 0.3323-0.3394s-0.1486-0.3323-0.3323-0.3323-0.3323 0.1486-0.3323 0.3323 0.1487 0.3393 0.3323 0.3394zm3.4785-0.1273c0.3339 0 0.608-0.2671 0.608-0.601s-0.2741-0.608-0.608-0.608-0.601 0.2741-0.601 0.608 0.2671 0.6009 0.601 0.601zm26.675-0.1768c0.3339 0 0.608-0.2741 0.608-0.608s-0.2741-0.601-0.608-0.6009-0.601 0.267-0.601 0.6009 0.2671 0.608 0.601 0.608zm-22.95-0.608c0.1837 0 0.3323-0.1486 0.3323-0.3323s-0.1487-0.3323-0.3323-0.3323-0.3394 0.1486-0.3394 0.3323 0.1557 0.3323 0.3394 0.3323zm8.3781-2.5381c0.3339 0 0.6009-0.2741 0.6009-0.608s-0.2671-0.601-0.6009-0.601-0.608 0.2671-0.608 0.601 0.2741 0.608 0.608 0.608zm7.1337-0.0636c0.3339 0 0.608-0.2671 0.608-0.601s-0.2741-0.608-0.608-0.608-0.6009 0.2741-0.6009 0.608 0.2671 0.601 0.6009 0.601zm12.585-0.6646c0.3339 0 0.601-0.2671 0.601-0.6009s-0.2671-0.608-0.601-0.608-0.608 0.2741-0.608 0.608 0.2741 0.6009 0.608 0.6009zm-30.246-0.4808c0.3339 0 0.601-0.2741 0.6009-0.608s-0.2671-0.6009-0.6009-0.6009-0.608 0.267-0.608 0.6009 0.2741 0.608 0.608 0.608zm15.363-0.0636c0.3339 0 0.608-0.2671 0.608-0.601s-0.2741-0.608-0.608-0.608-0.608 0.2741-0.608 0.608 0.2741 0.6009 0.608 0.601zm-12.125-1.3292c0.1836 0 0.3323-0.1487 0.3323-0.3323s-0.1486-0.3323-0.3323-0.3323-0.3394 0.1486-0.3394 0.3323 0.1557 0.3323 0.3394 0.3323zm-8.7174-0.9686c0.1837 0 0.3394-0.1486 0.3394-0.3323s-0.1557-0.3323-0.3394-0.3323-0.3323 0.1487-0.3323 0.3323 0.1486 0.3323 0.3323 0.3323zm21.96-0.1202c0.1837 0 0.3323-0.1487 0.3323-0.3323s-0.1486-0.3323-0.3323-0.3323-0.3323 0.1487-0.3323 0.3323 0.1486 0.3323 0.3323 0.3323zm9.7072-0.5444c0.3339 0 0.608-0.2741 0.608-0.608s-0.2741-0.601-0.608-0.6009-0.601 0.267-0.601 0.6009 0.2671 0.608 0.601 0.608zm-16.056-0.2404c0.1837 0 0.3323-0.1486 0.3323-0.3323s-0.1487-0.3323-0.3323-0.3323-0.3323 0.1487-0.3323 0.3323 0.1486 0.3323 0.3323 0.3323zm23.77-0.5444c0.1837 0 0.3323-0.1487 0.3323-0.3323s-0.1487-0.3323-0.3323-0.3323-0.3323 0.1486-0.3323 0.3323 0.1487 0.3323 0.3323 0.3323zm-23.013-0.1202c0.3339 0 0.601-0.2741 0.601-0.608s-0.2671-0.608-0.601-0.608-0.608 0.2741-0.608 0.608 0.2741 0.608 0.608 0.608zm9.679-0.1838c0.3339 0 0.601-0.2741 0.601-0.608s-0.2671-0.601-0.601-0.6009-0.608 0.267-0.608 0.6009 0.2741 0.608 0.608 0.608zm4.1431-0.8484c0.1837 0 0.3323-0.1486 0.3323-0.3323s-0.1487-0.3323-0.3323-0.3323-0.3323 0.1486-0.3323 0.3323 0.1486 0.3323 0.3323 0.3323zm9.0426-0.1838c0.3339 0 0.601-0.2671 0.601-0.6009s-0.2671-0.608-0.601-0.608-0.608 0.2741-0.608 0.608 0.2741 0.6009 0.608 0.6009zm-32.02 0c0.1516-0.031 0.2616-0.1716 0.2616-0.3323 0-0.1837-0.1486-0.3323-0.3323-0.3323s-0.3323 0.1486-0.3323 0.3323 0.1487 0.3323 0.3323 0.3323zm27.814-0.9615c0.1837 0 0.3323-0.1486 0.3323-0.3323s-0.1486-0.3394-0.3323-0.3394-0.3323 0.1557-0.3323 0.3394 0.1486 0.3323 0.3323 0.3323zm-24.222-0.608c0.3339 0 0.601-0.2741 0.601-0.608s-0.2671-0.6009-0.601-0.6009-0.608 0.267-0.608 0.6009 0.2741 0.608 0.608 0.608zm20.475-0.4808c0.1836 0 0.3323-0.1486 0.3323-0.3323s-0.1487-0.3394-0.3323-0.3394-0.3323 0.1557-0.3323 0.3394 0.1487 0.3323 0.3323 0.3323zm-9.9547-0.8484c0.3339 0 0.608-0.2741 0.608-0.608 0-0.0124-6e-3 -0.0232-7e-3 -0.0353 0.0468 0.0251 0.0988 0.0353 0.1555 0.0353 0.1837 0 0.3323-0.1487 0.3323-0.3323s-0.1487-0.3323-0.3323-0.3323c-0.153 0-0.2794 0.1067-0.3181 0.2475-0.11-0.1139-0.2676-0.1838-0.4384-0.1838-0.3339 0-0.6009 0.267-0.601 0.6009s0.2671 0.608 0.601 0.608zm6.5045-0.7282c0.1837 0 0.3323-0.1487 0.3323-0.3323s-0.1487-0.3323-0.3323-0.3323-0.3323 0.1486-0.3323 0.3323 0.1486 0.3323 0.3323 0.3323zm10.287-0.1202c0.1837 0 0.3323-0.1486 0.3323-0.3323s-0.1486-0.3323-0.3323-0.3323-0.3323 0.1487-0.3323 0.3323 0.1487 0.3323 0.3323 0.3323zm-2.5735-0.0636c0.3339 0 0.608-0.2671 0.608-0.601s-0.2741-0.608-0.608-0.608-0.608 0.2741-0.608 0.608 0.2741 0.6009 0.608 0.601zm-25.283-0.1768c0.3339 0 0.6009-0.2741 0.6009-0.608s-0.2671-0.6009-0.6009-0.6009-0.608 0.267-0.608 0.6009 0.2741 0.608 0.608 0.608zm5.1399-0.6646c0.3339 0 0.608-0.2741 0.608-0.608s-0.2741-0.6009-0.608-0.6009c-0.2607 0-0.4806 0.1646-0.5656 0.3959-0.0602 0.0602-0.099 0.1415-0.099 0.2333 0 0.1148 0.06 0.2159 0.1485 0.2758 0.1053 0.1782 0.2943 0.304 0.5161 0.304zm13.546-0.5444c0.3339 0 0.608-0.2741 0.608-0.608s-0.2741-0.601-0.608-0.601-0.601 0.2671-0.601 0.601 0.2671 0.608 0.601 0.608zm-22.32-0.608c0.3339 0 0.608-0.2671 0.608-0.601s-0.2741-0.608-0.608-0.608-0.601 0.2741-0.601 0.608 0.2671 0.601 0.601 0.601zm10.195-1.8736c0.1836 0 0.3323-0.1486 0.3323-0.3323s-0.1487-0.3323-0.3323-0.3323-0.3323 0.1486-0.3323 0.3323 0.1487 0.3323 0.3323 0.3323zm20.383-0.1202c0.1837 0 0.3323-0.1487 0.3323-0.3323s-0.1486-0.3323-0.3323-0.3323-0.3323 0.1486-0.3323 0.3323 0.1487 0.3323 0.3323 0.3323zm-27.644-0.0636c0.1836 0 0.3323-0.1486 0.3323-0.3323s-0.1487-0.3323-0.3323-0.3323-0.3323 0.1486-0.3323 0.3323 0.1487 0.3323 0.3323 0.3323zm23.409-1.3928c0.1836 0 0.3323-0.1487 0.3323-0.3323s-0.1487-0.3323-0.3323-0.3323-0.3323 0.1486-0.3323 0.3323 0.1487 0.3323 0.3323 0.3323zm1.3009-0.4808c0.3339 0 0.608-0.2741 0.608-0.608s-0.2741-0.601-0.608-0.601-0.601 0.2671-0.601 0.601 0.2671 0.608 0.601 0.608zm-21.74-0.7282c0.1837 0 0.3323-0.1486 0.3323-0.3323s-0.1487-0.3323-0.3323-0.3323-0.3394 0.1486-0.3394 0.3323 0.1557 0.3323 0.3394 0.3323zm2.7503-0.2404c0.3339 0 0.6009-0.267 0.6009-0.6009s-0.2671-0.608-0.6009-0.608-0.608 0.2741-0.608 0.608 0.2741 0.6009 0.608 0.6009zm-5.2036-0.9686c0.3339 0 0.608-0.2671 0.608-0.601s-0.2741-0.608-0.608-0.608-0.608 0.2741-0.608 0.608 0.2741 0.601 0.608 0.601zm17.449-0.1768c0.1837 0 0.3323-0.1557 0.3323-0.3394s-0.1486-0.3323-0.3323-0.3323-0.3323 0.1487-0.3323 0.3323 0.1487 0.3394 0.3323 0.3394zm-7.8337-0.0636c0.3339 0 0.608-0.2741 0.608-0.608s-0.2741-0.601-0.608-0.601-0.601 0.2671-0.601 0.601 0.2671 0.608 0.601 0.608zm10.435-0.608c0.1837 0 0.3323-0.1487 0.3323-0.3323s-0.1487-0.3323-0.3323-0.3323-0.3323 0.1486-0.3323 0.3323 0.1486 0.3323 0.3323 0.3323zm-11.673-1.3857c0.1836 0 0.3323-0.1487 0.3323-0.3323s-0.1487-0.3323-0.3323-0.3323-0.3323 0.1486-0.3323 0.3323 0.1487 0.3323 0.3323 0.3323zm-12.974-0.1838c0.3339 0 0.601-0.2741 0.6009-0.608s-0.2671-0.601-0.6009-0.601-0.608 0.2671-0.608 0.601 0.2741 0.608 0.608 0.608zm22.773-1.4494c0.1837 0 0.3323-0.1487 0.3323-0.3323s-0.1486-0.3323-0.3323-0.3323-0.3323 0.1486-0.3323 0.3323 0.1487 0.3323 0.3323 0.3323zm2.1493-0.4242c0.3339 0 0.601-0.2741 0.601-0.608s-0.2671-0.601-0.601-0.6009-0.608 0.267-0.608 0.6009 0.2741 0.608 0.608 0.608zm-25.742-0.912c0.1836 0 0.3323-0.1486 0.3323-0.3323s-0.1486-0.3323-0.3323-0.3323-0.3323 0.1486-0.3323 0.3323 0.1487 0.3323 0.3323 0.3323zm25.77-1.2656c0.1836 0 0.3323-0.1486 0.3323-0.3323s-0.1487-0.3323-0.3323-0.3323-0.3323 0.1487-0.3323 0.3323 0.1487 0.3323 0.3323 0.3323zm-16.636-0.912c0.1837 0 0.3323-0.1487 0.3323-0.3323s-0.1486-0.3323-0.3323-0.3323-0.3323 0.1486-0.3323 0.3323 0.1487 0.3323 0.3323 0.3323zm-8.5265-1.6332c0.1837 0 0.3323-0.1486 0.3323-0.3323s-0.1487-0.3323-0.3323-0.3323-0.3323 0.1486-0.3323 0.3323 0.1487 0.3323 0.3323 0.3323zm1.6898-1.209c0.1836 0 0.3323-0.1486 0.3323-0.3323s-0.1487-0.3323-0.3323-0.3323-0.3323 0.1486-0.3323 0.3323 0.1486 0.3323 0.3323 0.3323z" fill="url(#an-3)"/>
   <g transform="matrix(.16289 0 0 .16997 103.65 10.055)">
    <path d="m438.62 214.86c-4.1118 0-7.455 3.833-7.455 8.5639 0 1.9479 0.602 3.9106 1.5967 5.5445-1.664-1.1303-3.7521-1.8052-5.8271-1.8052-4.5651 0-8.2741 3.4646-8.2741 7.7258s3.709 7.7151 8.2741 7.715c4.1371 0 8.3417-3.0209 9.0932-6.7587 0.5761 1.9485 0.8917 4.052 0.8917 6.243-1e-5 5.0903-1.6939 9.697-4.4273 13.023h12.65c-2.8858-3.3468-4.6866-8.0741-4.6866-13.324-1e-5 -2.1022 0.2976-4.125 0.8295-6.0066 0.4601 3.9217 4.8464 6.8232 9.1657 6.8232 4.5651 0 8.2637-3.4539 8.2637-7.715s-3.6986-7.7258-8.2637-7.7258c-2.1426 0-4.3144 0.8057-6.0033 2.1061 1.0174-1.6911 1.6175-3.7756 1.6175-5.8454 0-4.7309-3.3328-8.5639-7.4446-8.5639z" fill="url(#d-88)" stroke="#c8c8c8" stroke-linejoin="round" stroke-width="1.0001"/>
   </g>
   <path transform="matrix(.36701 0 0 .36701 42.617 -52.108)" d="m460.94 245.98c0 14.766-11.97 26.737-26.737 26.737s-26.737-11.97-26.737-26.737 11.97-26.737 26.737-26.737 26.737 11.97 26.737 26.737z" fill="url(#a-65)" opacity=".4"/>
   <g transform="matrix(.33819 0 0 .3529 53.618 -44.755)">
    <path d="m438.62 214.86c-4.1118 0-7.455 3.833-7.455 8.5639 0 1.9479 0.602 3.9106 1.5967 5.5445-1.664-1.1303-3.7521-1.8052-5.8271-1.8052-4.5651 0-8.2741 3.4646-8.2741 7.7258s3.709 7.7151 8.2741 7.715c4.1371 0 8.3417-3.0209 9.0932-6.7587 0.5761 1.9485 0.8917 4.052 0.8917 6.243-1e-5 5.0903-1.6939 9.697-4.4273 13.023h12.65c-2.8858-3.3468-4.6866-8.0741-4.6866-13.324-1e-5 -2.1022 0.2976-4.125 0.8295-6.0066 0.4601 3.9217 4.8464 6.8232 9.1657 6.8232 4.5651 0 8.2637-3.4539 8.2637-7.715s-3.6986-7.7258-8.2637-7.7258c-2.1426 0-4.3144 0.8057-6.0033 2.1061 1.0174-1.6911 1.6175-3.7756 1.6175-5.8454 0-4.7309-3.3328-8.5639-7.4446-8.5639z" fill="url(#d-88)" stroke="#c8c8c8" stroke-linejoin="round" stroke-width="1.0001"/>
   </g>
   <path transform="matrix(.36701 0 0 .36701 42.617 -78.841)" d="m460.94 245.98c0 14.766-11.97 26.737-26.737 26.737s-26.737-11.97-26.737-26.737 11.97-26.737 26.737-26.737 26.737 11.97 26.737 26.737z" fill="url(#a-65)" opacity=".4"/>
   <g transform="matrix(.33819 0 0 .3529 53.618 -71.488)">
    <path d="m438.62 214.86c-4.1118 0-7.455 3.833-7.455 8.5639 0 1.9479 0.602 3.9106 1.5967 5.5445-1.664-1.1303-3.7521-1.8052-5.8271-1.8052-4.5651 0-8.2741 3.4646-8.2741 7.7258s3.709 7.7151 8.2741 7.715c4.1371 0 8.3417-3.0209 9.0932-6.7587 0.5761 1.9485 0.8917 4.052 0.8917 6.243-1e-5 5.0903-1.6939 9.697-4.4273 13.023h12.65c-2.8858-3.3468-4.6866-8.0741-4.6866-13.324-1e-5 -2.1022 0.2976-4.125 0.8295-6.0066 0.4601 3.9217 4.8464 6.8232 9.1657 6.8232 4.5651 0 8.2637-3.4539 8.2637-7.715s-3.6986-7.7258-8.2637-7.7258c-2.1426 0-4.3144 0.8057-6.0033 2.1061 1.0174-1.6911 1.6175-3.7756 1.6175-5.8454 0-4.7309-3.3328-8.5639-7.4446-8.5639z" fill="url(#d-88)" stroke="#c8c8c8" stroke-linejoin="round" stroke-width="1.0001"/>
   </g>
   <path transform="matrix(.36701 0 0 .36701 42.617 -105.57)" d="m460.94 245.98c0 14.766-11.97 26.737-26.737 26.737s-26.737-11.97-26.737-26.737 11.97-26.737 26.737-26.737 26.737 11.97 26.737 26.737z" fill="url(#a-65)" opacity=".4"/>
   <g transform="matrix(.33819 0 0 .3529 53.618 -98.221)">
    <path d="m438.62 214.86c-4.1118 0-7.455 3.833-7.455 8.5639 0 1.9479 0.602 3.9106 1.5967 5.5445-1.664-1.1303-3.7521-1.8052-5.8271-1.8052-4.5651 0-8.2741 3.4646-8.2741 7.7258s3.709 7.7151 8.2741 7.715c4.1371 0 8.3417-3.0209 9.0932-6.7587 0.5761 1.9485 0.8917 4.052 0.8917 6.243-1e-5 5.0903-1.6939 9.697-4.4273 13.023h12.65c-2.8858-3.3468-4.6866-8.0741-4.6866-13.324-1e-5 -2.1022 0.2976-4.125 0.8295-6.0066 0.4601 3.9217 4.8464 6.8232 9.1657 6.8232 4.5651 0 8.2637-3.4539 8.2637-7.715s-3.6986-7.7258-8.2637-7.7258c-2.1426 0-4.3144 0.8057-6.0033 2.1061 1.0174-1.6911 1.6175-3.7756 1.6175-5.8454 0-4.7309-3.3328-8.5639-7.4446-8.5639z" fill="url(#d-88)" stroke="#c8c8c8" stroke-linejoin="round" stroke-width="1.0001"/>
   </g>
   <path d="m224.71-28.04c0.6543 0 0.9093 0.0222 1.1755 0.122 0.6875 0.244 1.12 0.8761 1.12 1.6412 0 0.9315-0.6321 1.6523-1.4527 1.6523-0.2994 0-0.5212-0.0776-0.9315-0.3438-0.3327-0.1996-0.5212-0.2772-0.7097-0.2772-0.2551 0-0.4214 0.1552-0.4214 0.3881 0 0.3881 0.4768 0.6321 1.2531 0.6321 0.8539 0 1.7299-0.2883 2.2511-0.743s0.8095-1.0978 0.8095-1.8408c0-0.5656-0.1774-1.0867-0.499-1.4305-0.2218-0.244-0.4325-0.377-0.9204-0.5877 0.7652-0.5212 1.0424-0.9315 1.0424-1.5303 0-0.8982-0.7097-1.5192-1.7299-1.5192-0.5545 0-1.0424 0.1885-1.4416 0.5434-0.3327 0.2994-0.499 0.5877-0.743 1.2531l0.1663 0.0444c0.4547-0.8095 0.9537-1.1755 1.6523-1.1755 0.7208 0 1.2198 0.4879 1.2198 1.1866 0 0.3992-0.1663 0.7984-0.4436 1.0757-0.3327 0.3327-0.6432 0.499-1.3973 0.7652v0.1442" fill="url(#ey-8)" stroke="#fff" stroke-width=".4879"/>
  </g>
 </g>
</svg>
